%YAML 1.1
%TAG !u! tag:unity3d.com,2011:
--- !u!114 &11400000
MonoBehaviour:
  m_ObjectHideFlags: 0
  m_CorrespondingSourceObject: {fileID: 0}
  m_PrefabInstance: {fileID: 0}
  m_PrefabAsset: {fileID: 0}
  m_GameObject: {fileID: 0}
  m_Enabled: 1
  m_EditorHideFlags: 0
  m_Script: {fileID: 11500000, guid: 366fdd758539cbd44885034fcd600cea, type: 3}
  m_Name: CustomerPrefabs
  m_EditorClassIdentifier: 
  customers:
  - {fileID: 21300000, guid: 01367ecf192436645b88a4bd897643b3, type: 3}
  - {fileID: 21300002, guid: 01367ecf192436645b88a4bd897643b3, type: 3}
  - {fileID: 21300004, guid: 01367ecf192436645b88a4bd897643b3, type: 3}
  - {fileID: 21300006, guid: 01367ecf192436645b88a4bd897643b3, type: 3}
  - {fileID: 21300008, guid: 01367ecf192436645b88a4bd897643b3, type: 3}
  - {fileID: 21300000, guid: 25b565dd32f4ef14998248b6f0d503b3, type: 3}
  - {fileID: 21300012, guid: 01367ecf192436645b88a4bd897643b3, type: 3}
  - {fileID: 21300014, guid: 01367ecf192436645b88a4bd897643b3, type: 3}
  - {fileID: 21300016, guid: 01367ecf192436645b88a4bd897643b3, type: 3}
  - {fileID: 21300018, guid: 01367ecf192436645b88a4bd897643b3, type: 3}
  - {fileID: 21300000, guid: c3b2c94d7ee43ed479395a3e1aeba8c9, type: 3}
  - {fileID: 21300022, guid: 01367ecf192436645b88a4bd897643b3, type: 3}
  - {fileID: 21300024, guid: 01367ecf192436645b88a4bd897643b3, type: 3}
  - {fileID: 21300000, guid: 97b777a168e1b3847b6def89edfa71ed, type: 3}
  - {fileID: 21300028, guid: 01367ecf192436645b88a4bd897643b3, type: 3}
  - {fileID: 21300030, guid: 01367ecf192436645b88a4bd897643b3, type: 3}
